﻿Employee Name,Business Unit,Service Area,Operating Unit,Office,FTE,Resume_Link,Level,Consultant Status (Staffit),13/01/2019,20/01/2019,27/01/2019,03/02/2019,10/02/2019,17/02/2019,24/02/2019,03/03/2019,10/03/2019,17/03/2019,24/03/2019,31/03/2019,Assignment,Proposed,Time Allocation
"Bars, Peter (19521)",Consulting,CON CIO,CON CIO Operate,Melbourne,1,Resume Link,PARTNER,Active,5,5,4(1H),5,5,5,5,5,4(1H),5,5,5,,,Firm holiday(28 Jan-10 Jun)
"Chatterjee, Abhishek (50282)",Consulting,CON CIO,CON CIO Operate,Melbourne,1,Resume Link,DIRECTOR,Active,1,1,1(1H),1,1,1,1,1,1(1H),1,1,1,Deloitte Global Serv(01 Aug-28 Jun),,Firm holiday(28 Jan-10 Jun)
"Lawless, Janan (51933)",Consulting,CON CIO,CON CIO Operate,Melbourne,1,Resume Link,DIRECTOR,Active,1(4F),1(4F),1(3F1H),1(4F),1(4F),1(4F),1(4F),1(4F),-(4F1H),1(4F),1(4F),1(4F),Deloitte Global Serv(03 Sep-28 Jun),,Firm holiday(28 Jan-10 Jun)
"Wright, James (48118)",Consulting,CON CIO,CON CIO Operate,Melbourne,1,Resume Link,DIRECTOR,Active,-(5V),-(5V),-(4C1H),1,1,1,1,1,-(1H),1,1,1,Deloitte Global Serv(01 Aug-28 Jun),,"Vacation (Non-US)(14 Jan-25 Jan),Firm holiday(28 Jan-10 Jun),Conference/meeting(29 Jan-01 Feb)"
"Barden, Stephen (56817)",Consulting,CON CIO,CON CIO Operate,Melbourne,1,Resume Link,MANAGER,Active,1,1,1(1H),1,1,1,1,1,1(1H),1,1,1,Deloitte Global Serv(07 Jan-28 Jun),,Firm holiday(28 Jan-10 Jun)
"Devlin, Joel (49044)",Consulting,CON CIO,CON CIO Operate,Melbourne,1,Resume Link,MANAGER,Active,1,1,1(1H),1,1,1,1,1,-(1H),1,1,1,Deloitte Global Serv(01 Aug-28 Jun),,Firm holiday(28 Jan-10 Jun)
"Jordan, Scott (50301)",Consulting,CON CIO,CON CIO Operate,Melbourne,1,Resume Link,MANAGER,Active,1,1,-(1H),1,1,1,1,1,-(1H),1,1,1,Deloitte Global Serv(01 Aug-28 Jun),,Firm holiday(28 Jan-10 Jun)
"Petroski, Deni (54502)",Consulting,CON CIO,CON CIO Operate,Melbourne,1,Resume Link,MANAGER,Active,1,1,1(1H),1,1,1,1,1,-(1H),1,1,1,Deloitte Global Serv(01 Aug-28 Jun),,Firm holiday(28 Jan-10 Jun)
"Subramaniam, Gajendran (49347)",Consulting,CON CIO,CON CIO Operate,Melbourne,1,Resume Link,MANAGER,Active,1,1,-(1H),1,1,1,1,1,-(1H),1,1,1,Deloitte Global Serv(01 Aug-28 Jun),,Firm holiday(28 Jan-10 Jun)
"Anand, Heena (61945)",Consulting,CON CIO,CON CIO Operate,Melbourne,1,Resume Link,SENIOR CONSULTANT,Active,1,1,1(1H),1,1,1,1,1,1(1H),1,1,1,Deloitte Global Serv(05 Nov-28 Jun),,Firm holiday(28 Jan-10 Jun)
"Carmeli, Erez (55140)",Consulting,CON CIO,CON CIO Operate,Melbourne,1,Resume Link,SENIOR CONSULTANT,Active,1,1,1(1H),1,1,1,1,1,1(1H),1,1,1,Deloitte Global Serv(01 Aug-28 Jun),,Firm holiday(28 Jan-10 Jun)
"Chauhan, Mamta (47565)",Consulting,CON CIO,CON CIO Operate,Melbourne,1,Resume Link,SENIOR CONSULTANT,Active,1,1,1(1H),1,1,1,1,1,1(1H),1,1,1,Deloitte Global Serv(03 Sep-28 Jun),,Firm holiday(28 Jan-10 Jun)
"El-Shenawy, Sharif (50928)",Consulting,CON CIO,CON CIO Operate,Melbourne,1,Resume Link,SENIOR CONSULTANT,Active,1,1,1(1H),1,1,1,1,1,-(1H),1,1,1,Deloitte Global Serv(01 Aug-28 Jun),,Firm holiday(28 Jan-10 Jun)
"Gourishetty, Babitha (59058)",Consulting,CON CIO,CON CIO Operate,Melbourne,1,Resume Link,SENIOR CONSULTANT,Active,1,1,-(1H),1,1,1,1,1,-(1H),1,1,1,Deloitte Global Serv(01 Aug-28 Jun),,Firm holiday(28 Jan-10 Jun)
"Hargreaves, Geoff (51007)",Consulting,CON CIO,CON CIO Operate,Melbourne,1,Resume Link,SENIOR CONSULTANT,Active,1,1,1(1H),1,1,1,1,1,1,1,1,1,Deloitte Global Serv(01 Aug-28 Jun),,Firm holiday(28 Jan-10 Jun)
"Jaiswal, Shweta (50392)",Consulting,CON CIO,CON CIO Operate,Melbourne,1,Resume Link,SENIOR CONSULTANT,Active,1(5F),1(5F),-(4F1H),1,1,1,1,1,-(1H),1,1,1,"Deloitte Global Serv, ServiceNow for CIC -(03 Aug-28 Jun)","Deloitte Global Serv, Service Management -(01 Jan-31 Jan),Deloitte Global Serv, ServiceNow for CIC -(01 Jan-31 Jan)",Firm holiday(28 Jan-10 Jun)
"Jamieson, Mark (47577)",Consulting,CON CIO,CON CIO Operate,Melbourne,1,Resume Link,SENIOR CONSULTANT,Active,1,1,1(1H),1,1,1,1,1,-(1H),1,1,1,Deloitte Global Serv(03 Sep-28 Jun),,Firm holiday(28 Jan-10 Jun)
"Lakoumentas, Dimi (45224)",Consulting,CON CIO,CON CIO Operate,Melbourne,1,Resume Link,SENIOR CONSULTANT,Active,1,1,1(1H),1,1,1,1,1,1(1H),1,1,1,Deloitte Global Serv(01 Aug-28 Jun),,Firm holiday(28 Jan-10 Jun)
"Penugonda, Prasanna (49176)",Consulting,CON CIO,CON CIO Operate,Melbourne,1,Resume Link,SENIOR CONSULTANT,Active,1,1,1(1H),1,1,1,1,1,1(1H),1,1,1,Deloitte Global Serv(01 Aug-28 Jun),,Firm holiday(28 Jan-10 Jun)
"Tan, Jeff (64383)",Consulting,CON CIO,CON CIO Operate,Melbourne,1,Resume Link,SENIOR CONSULTANT,Active,5,1,-(1H),1,1,1,1,1,-(1H),1,1,1,Deloitte Global Serv(21 Jan-28 Jun),,Firm holiday(28 Jan-10 Jun)
"Varghese, Shyam (51776)",Consulting,CON CIO,CON CIO Operate,Melbourne,1,Resume Link,SENIOR CONSULTANT,Active,1,1,-(1H),1,1,1,1,1,-(1H),1,1,1,Deloitte Global Serv(03 Sep-28 Jun),,Firm holiday(28 Jan-10 Jun)
"Deshmukh, Nakul (59292)",Consulting,CON CIO,CON CIO Operate,Melbourne,1,Resume Link,CONSULTANT,Active,1,1,1(1H),1,1,1,1,1,-(1H),1,1,1,Deloitte Global Serv(01 Aug-28 Jun),,Firm holiday(28 Jan-10 Jun)
"Dodd, Erica (52601)",Consulting,CON CIO,CON CIO Operate,Melbourne,1,Resume Link,CONSULTANT,Active,1,1,1(1H),1,1,1,1,1,-(1H),1,1,1,Deloitte Global Serv(01 Aug-28 Jun),,Firm holiday(28 Jan-10 Jun)
"Dsouza, Tanya (57208)",Consulting,CON CIO,CON CIO Operate,Melbourne,0.5,Resume Link,CONSULTANT,Active,2,2,2(1H),2,2,-(2PT),-(2PT),-(2PT),-(1H2PT),-(2PT),-(2PT),-(2PT),Deloitte Global Serv(15 Oct-28 Jun),,"Firm holiday(28 Jan-10 Jun),Non working time (FW(19 Feb-19 Jun)"
"Gadepalli, Anu (59132)",Consulting,CON CIO,CON CIO Operate,Melbourne,1,Resume Link,CONSULTANT,Active,1,1,1(1H),1,1,1,1,1,1(1H),1,1,1,"DPC - VIC DEPARTMENT OF PREMIE(15 Jan-18 Jan),Deloitte Global Serv(21 Jan-28 Jun)",,Firm holiday(28 Jan-10 Jun)
"Gunn, Gordon (49152)",Consulting,CON CIO,CON CIO Operate,Melbourne,1,Resume Link,CONSULTANT,Active,1,1,1(1H),1,1,1,1,1,-(1H),1,1,1,Deloitte Global Serv(03 Sep-28 Jun),,Firm holiday(28 Jan-10 Jun)
"Joel, Sirisha (64387)",Consulting,CON CIO,CON CIO Operate,Melbourne,1,Resume Link,CONSULTANT,Active,5,1,-(1H),1,1,1,1,1,-(1H),1,1,1,Deloitte Global Serv(21 Jan-28 Jun),,Firm holiday(28 Jan-10 Jun)
"Johnson, Olivia (45956)",Consulting,CON CIO,CON CIO Operate,Melbourne,1,Resume Link,CONSULTANT,Active,1,1,1(1H),1,1,1,1,1,-(1H),1,1,1,Deloitte Global Serv(01 Aug-28 Jun),,Firm holiday(28 Jan-10 Jun)
"Mangat, Virinder (51259)",Consulting,CON CIO,CON CIO Operate,Melbourne,1,Resume Link,CONSULTANT,Active,1,1,1(1H),1,1,1,1,1,-(1H),1,1,1,Deloitte Global Serv(01 Aug-28 Jun),,Firm holiday(28 Jan-10 Jun)
"Prabhu, Shyama (52238)",Consulting,CON CIO,CON CIO Operate,Melbourne,1,Resume Link,CONSULTANT,Active,1,1,1(1H),1,1,1,1,1,1(1H),1,1,1,Deloitte Global Serv(01 Aug-28 Jun),,Firm holiday(28 Jan-10 Jun)
"Rawal, Umesh (52420)",Consulting,CON CIO,CON CIO Operate,Melbourne,1,Resume Link,CONSULTANT,Active,1,1,1(1H),1,1,1,1,1,1(1H),1,1,1,Deloitte Global Serv(01 Aug-28 Jun),,Firm holiday(28 Jan-10 Jun)
"Cherian, Nikhil (53604)",Consulting,CON CIO,CON CIO Operate,Melbourne,1,Resume Link,GRADUATE,Active,1,1,1(1H),1,1,1,1,1,1(1H),1,1,1,Deloitte Global Serv(10 Sep-28 Jun),,Firm holiday(28 Jan-10 Jun)
"Chopra, Shorye (58282)",Consulting,CON CIO,CON CIO Operate,Melbourne,1,Resume Link,GRADUATE,Active,1,1,-(1H),1,1,1,1,1,-(1H),1,1,1,Deloitte Global Serv(10 Sep-28 Jun),,Firm holiday(28 Jan-10 Jun)
"Gatt, Chris (56539)",Consulting,CON CIO,CON CIO Operate,Melbourne,1,Resume Link,GRADUATE,Active,1,1,1(1H),1,1,1,1,1,-(1H),1,1,1,Deloitte Global Serv(15 Oct-28 Jun),,Firm holiday(28 Jan-10 Jun)
"Kahler, Christopher (53106)",Consulting,CON CIO,CON CIO Operate,Melbourne,1,Resume Link,SENIOR MANAGER,Active,1,1,-(1H),1,1,1,1,1,-(1H),1,1,1,Deloitte Global Serv(03 Sep-28 Jun),,Firm holiday(28 Jan-10 Jun)
"Straube, Dayane (51821)",Consulting,CON CIO,CON CIO Operate,Melbourne,1,Resume Link,SENIOR MANAGER,Active,1,1,-(1H),1,1,1,1,1,-(1H),1,1,1,Deloitte Global Serv(01 Aug-28 Jun),,Firm holiday(28 Jan-10 Jun)