﻿Employee Name,Email Address,Sum of Missing TS,
"Anand, Heena",heanand@deloitte.com.au,0,
"Barden, Stephen",sbarden@deloitte.com.au,0,
"Bars, Peter",pbars@deloitte.com.au,0,
"Carmeli, Erez",ecarmeli@deloitte.com.au,0,
"Chatterjee, Abhishek",abchatterjee@deloitte.com.au,0,`
"Chauhan, Mamta",mamchauhan@deloitte.com.au,5,
"Cherian, Nikhil",nicherian@deloitte.com.au,0,
"Chopra, Shorye",shochopra@deloitte.com.au,0,
"Deshmukh, Nakul",nakdeshmukh@deloitte.com.au,0,
"Devlin, Joel",jdevlin@deloitte.com.au,0,
"Dodd, Erica",edodd@deloitte.com.au,0,
"Dsouza, Tanya",tadsouza@deloitte.com.au,0,
"El-Shenawy, Sharif",sel-shenawy@deloitte.com.au,5,
"Gadepalli, Anu",angadepalli@deloitte.com.au,2,
"Gatt, Chris",cgatt@deloitte.com.au,0,
"Gourishetty, Babitha",bgourishetty@deloitte.com.au,0,
"Gunn, Gordon",gogunn@deloitte.com.au,0,
"Hargreaves, Geoff",ghargreaves@deloitte.com.au,0,
"Jaiswal, Shweta",shwejaiswal@deloitte.com.au,0,
"Jamieson, Mark",majamieson@deloitte.com.au,0,
"Johnson, Olivia",ojohnson@deloitte.com.au,5,
"Jordan, Scott",scojordan@deloitte.com.au,5,
"Kahler, Christopher",ckahler@deloitte.com.au,0,
"Lakoumentas, Dimi",dlakoumentas@deloitte.com.au,0,
"Lawless, Janan",jlawless@deloitte.com.au,0,
"Mangat, Virinder",vmangat@deloitte.com.au,0,
"Matters, Rebecca",rmatters@deloitte.com.au,9,
"Penugonda, Prasanna",prpenugonda@deloitte.com.au,0,
"Petroski, Deni",depetroski@deloitte.com.au,0,
"Prabhu, Shyama",shyprabhu@deloitte.com.au,0,
"Rawal, Umesh",urawal@deloitte.com.au,0,
"Straube, Dayane",dstraube@deloitte.com.au,0,
"Subramaniam, Gajendran",gasubramaniam@deloitte.com.au,0,
"Varghese, Shyam",shyvarghese@deloitte.com.au,0,
"Wright, James",jwright2@deloitte.com.au,0,